module typing-app

go 1.20

require (
	github.com/gdamore/tcell/v2 v2.6.0
	github.com/rivo/tview v0.0.0-20230826224341-9754ab44dc1c
)

require (
	github.com/gdamore/encoding v1.0.0 // indirect
	github.com/lucasb-eyer/go-colorful v1.2.0 // indirect
	github.com/mattn/go-runewidth v0.0.14 // indirect
	github.com/rivo/uniseg v0.4.3 // indirect
	golang.org/x/sys v0.6.0 // indirect
	golang.org/x/term v0.6.0 // indirect
	golang.org/x/text v0.7.0 // indirect
)
